<?xml version="1.0" standalone="no"?>
<!DOCTYPE svg PUBLIC "-//W3C//DTD SVG 20010904//EN"
 "http://www.w3.org/TR/2001/REC-SVG-20010904/DTD/svg10.dtd">
<svg version="1.0" xmlns="http://www.w3.org/2000/svg"
 width="512.000000pt" height="512.000000pt" viewBox="0 0 512.000000 512.000000"
 preserveAspectRatio="xMidYMid meet">
<metadata>
Created by potrace 1.11, written by Peter Selinger 2001-2013
</metadata>
<g transform="translate(0.000000,512.000000) scale(0.100000,-0.100000)"
fill="#000000" stroke="none">
<path d="M235 5109 c-103 -30 -184 -110 -219 -214 -15 -47 -16 -197 -14 -1820
l3 -1770 29 -58 c46 -90 130 -156 221 -173 22 -4 357 -8 745 -8 l705 -1 1
-228 1 -227 -26 -7 c-14 -3 -30 -8 -36 -11 -5 -4 -57 -22 -114 -42 -140 -47
-143 -51 -144 -209 0 -77 -4 -122 -11 -124 -6 -2 -54 -4 -107 -3 l-97 1 1
-107 1 -108 906 0 907 0 0 105 0 105 -26 1 c-14 0 -327 1 -694 1 l-668 1 3 69
3 70 105 36 105 36 585 1 585 2 1 106 1 107 -533 0 -534 0 0 213 0 214 503 1
c276 0 516 1 533 1 l32 1 -1 105 -1 105 -1343 0 c-1458 0 -1384 -3 -1415 53
-17 30 -21 684 -4 690 6 2 630 4 1386 4 l1375 0 1 106 1 107 -1386 2 -1386 3
-1 1285 c-1 1105 0 1289 13 1317 30 65 -148 61 2343 59 2248 -1 2265 -1 2292
-21 15 -11 31 -31 36 -45 5 -14 8 -385 8 -833 l-1 -807 108 0 108 0 -3 843 -3
842 -25 50 c-32 64 -95 128 -157 157 l-48 23 -2310 2 c-1315 1 -2323 -3 -2340
-8z"/>
<path d="M3363 2979 c-73 -15 -138 -80 -153 -153 -8 -36 -10 -446 -8 -1367 l3
-1315 28 -42 c15 -23 46 -54 69 -69 l42 -28 802 -3 803 -2 46 21 c54 25 102
79 115 131 7 23 9 511 8 1365 l-3 1328 -25 35 c-13 19 -36 45 -50 58 -54 49
-62 49 -880 49 -421 -1 -780 -4 -797 -8z m1523 -208 c21 -1 21 -5 20 -158 l-1
-158 -746 -1 -747 0 1 157 1 158 30 3 c26 2 1376 1 1442 -1z m21 -1276 l0
-745 -31 -1 c-39 -1 -1426 -1 -1447 0 -14 1 -16 72 -16 739 0 405 2 740 4 745
2 4 338 7 747 7 l743 0 0 -745z m-21 -964 c21 -1 21 -5 20 -158 l-1 -158 -746
-1 -747 0 1 157 1 158 30 3 c26 2 1375 1 1442 -1z"/>
</g>
</svg>
